30 30
100 100
40 40 40 40 40 40 40 40 40 40 40 40 40 40 40 40 40 40 40 40 40 40 40 40 40 40 40 40 40 40 
40 11 11 20 30 22 22 40 21 10 11 21 11 21 22 30 21 11 32 10 31 11 10 30 10 31 31 31 10 40 
40 30 21 22 30 10 21 10 31 40 10 11 20 11 21 21 10 40 32 31 31 32 10 11 32 20 40 10 21 40 
40 11 32 32 40 30 21 31 10 20 20 10 40 31 21 11 31 40 10 40 22 22 20 11 31 20 21 31 31 40 
40 30 20 31 32 40 30 11 32 31 22 32 22 40 22 10 22 40 30 10 20 31 32 11 30 30 11 40 32 40 
40 21 11 20 20 40 11 22 20 11 20 31 20 22 22 30 20 32 22 32 31 20 21 22 21 40 11 21 30 40 
40 11 32 22 31 22 20 31 32 10 31 11 40 21 21 21 11 22 40 10 21 22 30 32 22 30 11 20 30 40 
40 22 31 22 20 31 10 10 21 20 21 20 21 40 31 10 40 31 22 11 11 20 31 30 31 10 22 40 20 40 
40 11 11 32 21 40 31 31 21 40 32 40 20 20 31 22 21 20 40 21 40 31 32 11 32 21 40 31 30 40 
40 22 21 30 30 31 21 40 30 11 32 30 21 30 30 32 20 10 21 20 31 40 11 30 32 11 22 30 32 40 
40 40 31 11 20 22 10 31 40 32 30 20 10 31 22 31 10 40 32 31 20 31 31 11 21 40 22 30 21 40 
40 22 10 22 10 10 11 31 40 22 10 31 32 20 40 21 11 22 20 30 21 10 30 11 21 31 11 22 40 40 
40 32 31 40 30 31 21 40 11 40 40 31 30 21 31 40 31 22 32 10 31 40 31 10 21 21 10 40 11 40 
40 22 21 40 32 31 22 21 21 31 20 22 10 32 11 20 32 21 40 10 22 21 11 10 30 11 22 32 31 40 
40 10 32 10 32 32 40 32 20 30 21 10 22 11 11 22 30 21 32 40 32 30 11 11 40 30 11 10 20 40 
40 11 11 31 10 32 30 21 30 21 32 40 30 30 10 10 10 20 10 31 11 30 11 40 31 22 22 10 32 40 
40 10 11 30 31 30 11 32 11 22 10 21 30 32 21 31 10 40 11 21 32 11 20 31 20 32 11 11 31 40 
40 22 11 20 20 10 20 40 20 40 11 31 11 32 21 22 20 40 40 10 31 32 30 10 21 20 11 10 40 40 
40 11 10 30 40 31 40 21 10 10 21 40 32 40 32 11 11 21 11 30 22 31 10 32 40 21 20 11 20 40 
40 21 22 21 20 10 21 31 32 22 20 40 20 20 21 32 20 21 32 30 21 30 11 31 22 10 32 32 10 40 
40 21 11 40 30 22 21 31 21 40 22 22 40 40 21 30 40 11 11 40 11 22 11 30 22 32 22 32 21 40 
40 11 32 20 32 22 10 22 30 11 22 20 30 21 20 40 11 32 40 10 30 20 22 10 22 21 21 22 31 40 
40 20 32 32 10 32 11 10 22 31 20 11 22 21 20 30 10 30 31 11 40 31 20 11 20 10 22 31 20 40 
40 32 30 32 10 31 31 11 22 31 32 40 40 30 30 22 10 11 31 22 21 40 31 21 40 10 32 30 10 40 
40 31 11 21 20 22 11 40 20 21 21 21 21 31 11 10 10 21 11 32 20 40 31 20 40 32 21 30 30 40 
40 22 22 32 22 30 20 40 32 10 40 40 11 22 22 10 21 30 11 21 31 10 31 11 32 40 20 22 32 40 
40 21 30 22 31 30 40 31 11 31 31 21 20 20 22 11 20 22 10 10 22 22 31 30 31 11 11 30 31 40 
40 22 31 30 22 32 31 32 32 32 40 20 20 31 22 22 22 10 21 11 22 21 32 22 10 40 10 40 31 40 
40 20 40 10 21 20 40 22 30 40 21 21 20 40 20 31 10 31 31 11 11 22 32 22 20 32 22 22 20 40 
40 40 40 40 40 40 40 40 40 40 40 40 40 40 40 40 40 40 40 40 40 40 40 40 40 40 40 40 40 40 
